<svg width="28" height="34" viewBox="0 0 28 34" fill="none" xmlns="http://www.w3.org/2000/svg">
<path d="M25.1562 4.25H19.3125V3.1875C19.3125 1.42993 17.8826 0 16.125 0H11.875C10.1174 0 8.6875 1.42993 8.6875 3.1875V4.25H2.84375C1.37909 4.25 0.1875 5.44159 0.1875 6.90625V10.625C0.1875 11.2118 0.663234 11.6875 1.25 11.6875H1.83066L2.74859 30.9641C2.82967 32.6665 4.22819 34 5.93244 34H22.0676C23.7719 34 25.1704 32.6665 25.2514 30.9641L26.1693 11.6875H26.75C27.3368 11.6875 27.8125 11.2118 27.8125 10.625V6.90625C27.8125 5.44159 26.6209 4.25 25.1562 4.25ZM10.8125 3.1875C10.8125 2.60166 11.2892 2.125 11.875 2.125H16.125C16.7108 2.125 17.1875 2.60166 17.1875 3.1875V4.25H10.8125V3.1875ZM2.3125 6.90625C2.3125 6.61333 2.55083 6.375 2.84375 6.375H25.1562C25.4492 6.375 25.6875 6.61333 25.6875 6.90625V9.5625C25.3601 9.5625 3.66938 9.5625 2.3125 9.5625V6.90625ZM23.1288 30.863C23.1018 31.4305 22.6356 31.875 22.0676 31.875H5.93244C5.36433 31.875 4.89816 31.4305 4.8712 30.863L3.95805 11.6875H24.042L23.1288 30.863Z" fill="#2F80ED"/>
<path d="M14 29.75C14.5868 29.75 15.0625 29.2743 15.0625 28.6875V14.875C15.0625 14.2882 14.5868 13.8125 14 13.8125C13.4132 13.8125 12.9375 14.2882 12.9375 14.875V28.6875C12.9375 29.2743 13.4132 29.75 14 29.75Z" fill="#2F80ED"/>
<path d="M19.3125 29.75C19.8993 29.75 20.375 29.2743 20.375 28.6875V14.875C20.375 14.2882 19.8993 13.8125 19.3125 13.8125C18.7257 13.8125 18.25 14.2882 18.25 14.875V28.6875C18.25 29.2743 18.7257 29.75 19.3125 29.75Z" fill="#2F80ED"/>
<path d="M8.6875 29.75C9.27427 29.75 9.75 29.2743 9.75 28.6875V14.875C9.75 14.2882 9.27427 13.8125 8.6875 13.8125C8.10073 13.8125 7.625 14.2882 7.625 14.875V28.6875C7.625 29.2743 8.10067 29.75 8.6875 29.75Z" fill="#2F80ED"/>
</svg>
